<svg width="320" height="265" viewBox="0 0 320 265" fill="none" xmlns="http://www.w3.org/2000/svg">
<path d="M53 159H0.5V133H71.5L111.5 203.5L199.5 0L270.5 141.5H275H319.5V168H257.5L199.5 61L111.5 265L53 159Z" fill="#30BF96"/>
</svg>
