{
  "meta": {
    "symbol": "TSLA",
    "interval": "5min",
    "currency": "USD",
    "exchange_timezone": "America/New_York",
    "exchange": "NASDAQ",
    "type": "Common Stock"
  },
  "values": [
    {
      "datetime": "2021-07-30 16:00:00",
      "open": "687.20001",
      "high": "687.20001",
      "low": "687.20001",
      "close": "687.20001",
      "volume": "0"
    },
    {
      "datetime": "2021-07-30 15:55:00",
      "open": "685.54999",
      "high": "687.75000",
      "low": "685.46997",
      "close": "687.53003",
      "volume": "893844"
    },
    {
      "datetime": "2021-07-30 15:50:00",
      "open": "683.82001",
      "high": "685.79999",
      "low": "682.78998",
      "close": "685.63000",
      "volume": "461686"
    },
    {
      "datetime": "2021-07-30 15:45:00",
      "open": "683.77002",
      "high": "684.27991",
      "low": "683.41998",
      "close": "683.67999",
      "volume": "226824"
    },
    {
      "datetime": "2021-07-30 15:40:00",
      "open": "683.76147",
      "high": "684.51001",
      "low": "682.77002",
      "close": "683.67999",
      "volume": "324909"
    },
    {
      "datetime": "2021-07-30 15:35:00",
      "open": "684.17999",
      "high": "684.58990",
      "low": "683.50000",
      "close": "683.84003",
      "volume": "180159"
    },
    {
      "datetime": "2021-07-30 15:30:00",
      "open": "684.76001",
      "high": "685.17999",
      "low": "683.96002",
      "close": "684.31000",
      "volume": "187582"
    },
    {
      "datetime": "2021-07-30 15:25:00",
      "open": "683.20502",
      "high": "685.08990",
      "low": "683.19501",
      "close": "684.90002",
      "volume": "161340"
    },
    {
      "datetime": "2021-07-30 15:20:00",
      "open": "685.01099",
      "high": "685.79999",
      "low": "683.00000",
      "close": "683.09998",
      "volume": "217328"
    },
    {
      "datetime": "2021-07-30 15:15:00",
      "open": "683.67999",
      "high": "685.09003",
      "low": "682.93103",
      "close": "684.97498",
      "volume": "191640"
    },
    {
      "datetime": "2021-07-30 15:10:00",
      "open": "685.21167",
      "high": "685.28003",
      "low": "683.07001",
      "close": "683.59003",
      "volume": "218909"
    },
    {
      "datetime": "2021-07-30 15:05:00",
      "open": "685.56598",
      "high": "685.81989",
      "low": "684.33002",
      "close": "685.02002",
      "volume": "198245"
    },
    {
      "datetime": "2021-07-30 15:00:00",
      "open": "683.44000",
      "high": "685.64502",
      "low": "683.32550",
      "close": "685.64502",
      "volume": "227050"
    },
    {
      "datetime": "2021-07-30 14:55:00",
      "open": "684.67999",
      "high": "684.75989",
      "low": "682.92999",
      "close": "683.25000",
      "volume": "258823"
    },
    {
      "datetime": "2021-07-30 14:50:00",
      "open": "684.78998",
      "high": "685.34998",
      "low": "684.09900",
      "close": "684.82001",
      "volume": "146659"
    },
    {
      "datetime": "2021-07-30 14:45:00",
      "open": "683.57001",
      "high": "685.53003",
      "low": "683.45001",
      "close": "685.00500",
      "volume": "286435"
    },
    {
      "datetime": "2021-07-30 14:40:00",
      "open": "683.27002",
      "high": "684.16290",
      "low": "682.87000",
      "close": "683.46997",
      "volume": "298563"
    },
    {
      "datetime": "2021-07-30 14:35:00",
      "open": "684.58441",
      "high": "684.89001",
      "low": "683.00000",
      "close": "683.08008",
      "volume": "310513"
    },
    {
      "datetime": "2021-07-30 14:30:00",
      "open": "685.34003",
      "high": "686.16309",
      "low": "684.21503",
      "close": "684.71997",
      "volume": "247755"
    },
    {
      "datetime": "2021-07-30 14:25:00",
      "open": "687.59998",
      "high": "688.47998",
      "low": "685.50000",
      "close": "685.59998",
      "volume": "272520"
    },
    {
      "datetime": "2021-07-30 14:20:00",
      "open": "688.04999",
      "high": "688.76941",
      "low": "687.09003",
      "close": "687.60687",
      "volume": "215654"
    },
    {
      "datetime": "2021-07-30 14:15:00",
      "open": "688.35999",
      "high": "688.50000",
      "low": "686.95813",
      "close": "688.10999",
      "volume": "181951"
    },
    {
      "datetime": "2021-07-30 14:10:00",
      "open": "689.53992",
      "high": "689.53992",
      "low": "687.88458",
      "close": "688.46240",
      "volume": "118069"
    },
    {
      "datetime": "2021-07-30 14:05:00",
      "open": "688.09821",
      "high": "689.72992",
      "low": "687.62012",
      "close": "689.46863",
      "volume": "164159"
    },
    {
      "datetime": "2021-07-30 14:00:00",
      "open": "689.84003",
      "high": "689.90002",
      "low": "687.81000",
      "close": "688.36981",
      "volume": "212904"
    },
    {
      "datetime": "2021-07-30 13:55:00",
      "open": "688.40997",
      "high": "690.19989",
      "low": "688.01001",
      "close": "689.69000",
      "volume": "212650"
    },
    {
      "datetime": "2021-07-30 13:50:00",
      "open": "690.38013",
      "high": "690.65002",
      "low": "688.34998",
      "close": "688.60999",
      "volume": "266892"
    },
    {
      "datetime": "2021-07-30 13:45:00",
      "open": "690.00000",
      "high": "691.11987",
      "low": "689.90002",
      "close": "690.66998",
      "volume": "155500"
    },
    {
      "datetime": "2021-07-30 13:40:00",
      "open": "692.01001",
      "high": "692.18500",
      "low": "689.89001",
      "close": "690.10999",
      "volume": "172107"
    },
    {
      "datetime": "2021-07-30 13:35:00",
      "open": "691.60999",
      "high": "692.92999",
      "low": "691.28998",
      "close": "692.22162",
      "volume": "186152"
    },
    {
      "datetime": "2021-07-30 13:30:00",
      "open": "692.08002",
      "high": "692.25000",
      "low": "690.73010",
      "close": "691.72412",
      "volume": "184875"
    },
    {
      "datetime": "2021-07-30 13:25:00",
      "open": "690.75000",
      "high": "692.26868",
      "low": "690.50000",
      "close": "692.17999",
      "volume": "199511"
    },
    {
      "datetime": "2021-07-30 13:20:00",
      "open": "691.34998",
      "high": "692.00000",
      "low": "689.78009",
      "close": "690.72430",
      "volume": "241174"
    },
    {
      "datetime": "2021-07-30 13:15:00",
      "open": "693.09998",
      "high": "693.84998",
      "low": "690.92999",
      "close": "691.35999",
      "volume": "251497"
    },
    {
      "datetime": "2021-07-30 13:10:00",
      "open": "694.34998",
      "high": "694.47998",
      "low": "692.82001",
      "close": "693.29999",
      "volume": "229182"
    },
    {
      "datetime": "2021-07-30 13:05:00",
      "open": "694.27002",
      "high": "695.75989",
      "low": "694.17999",
      "close": "694.41010",
      "volume": "195383"
    },
    {
      "datetime": "2021-07-30 13:00:00",
      "open": "696.31061",
      "high": "696.33002",
      "low": "693.66998",
      "close": "694.24011",
      "volume": "313566"
    },
    {
      "datetime": "2021-07-30 12:55:00",
      "open": "697.27502",
      "high": "697.35999",
      "low": "695.00012",
      "close": "696.46002",
      "volume": "288415"
    },
    {
      "datetime": "2021-07-30 12:50:00",
      "open": "697.07001",
      "high": "697.53003",
      "low": "696.00000",
      "close": "697.22998",
      "volume": "303676"
    },
    {
      "datetime": "2021-07-30 12:45:00",
      "open": "695.88000",
      "high": "697.28992",
      "low": "695.69000",
      "close": "697.00000",
      "volume": "469720"
    },
    {
      "datetime": "2021-07-30 12:40:00",
      "open": "695.60999",
      "high": "696.34998",
      "low": "694.59998",
      "close": "695.90399",
      "volume": "357651"
    },
    {
      "datetime": "2021-07-30 12:35:00",
      "open": "694.32001",
      "high": "696.29999",
      "low": "693.92999",
      "close": "695.66998",
      "volume": "639629"
    },
    {
      "datetime": "2021-07-30 12:30:00",
      "open": "693.21997",
      "high": "694.79999",
      "low": "693.20007",
      "close": "694.21997",
      "volume": "355407"
    },
    {
      "datetime": "2021-07-30 12:25:00",
      "open": "692.24500",
      "high": "693.72998",
      "low": "691.28003",
      "close": "693.15198",
      "volume": "292246"
    },
    {
      "datetime": "2021-07-30 12:20:00",
      "open": "693.18219",
      "high": "693.18219",
      "low": "691.37012",
      "close": "692.26001",
      "volume": "182426"
    },
    {
      "datetime": "2021-07-30 12:15:00",
      "open": "691.67999",
      "high": "693.47998",
      "low": "691.56000",
      "close": "693.15503",
      "volume": "333927"
    },
    {
      "datetime": "2021-07-30 12:10:00",
      "open": "690.76001",
      "high": "691.83990",
      "low": "689.51001",
      "close": "691.70001",
      "volume": "233166"
    },
    {
      "datetime": "2021-07-30 12:05:00",
      "open": "693.68988",
      "high": "693.72998",
      "low": "690.56000",
      "close": "690.91998",
      "volume": "308447"
    },
    {
      "datetime": "2021-07-30 12:00:00",
      "open": "692.27002",
      "high": "694.19000",
      "low": "692.04999",
      "close": "693.62000",
      "volume": "574744"
    },
    {
      "datetime": "2021-07-30 11:55:00",
      "open": "690.59497",
      "high": "692.35999",
      "low": "690.21997",
      "close": "692.14001",
      "volume": "252569"
    },
    {
      "datetime": "2021-07-30 11:50:00",
      "open": "690.90002",
      "high": "691.85999",
      "low": "689.75000",
      "close": "690.51001",
      "volume": "295590"
    },
    {
      "datetime": "2021-07-30 11:45:00",
      "open": "690.27002",
      "high": "691.29999",
      "low": "690.00000",
      "close": "690.84998",
      "volume": "276576"
    },
    {
      "datetime": "2021-07-30 11:40:00",
      "open": "689.17999",
      "high": "690.37988",
      "low": "687.97998",
      "close": "690.27002",
      "volume": "254217"
    },
    {
      "datetime": "2021-07-30 11:35:00",
      "open": "687.59003",
      "high": "689.53992",
      "low": "687.47998",
      "close": "689.27002",
      "volume": "242026"
    },
    {
      "datetime": "2021-07-30 11:30:00",
      "open": "688.01001",
      "high": "688.33002",
      "low": "687.44000",
      "close": "687.53998",
      "volume": "191213"
    },
    {
      "datetime": "2021-07-30 11:25:00",
      "open": "686.97498",
      "high": "688.12988",
      "low": "685.25012",
      "close": "687.87000",
      "volume": "283040"
    },
    {
      "datetime": "2021-07-30 11:20:00",
      "open": "687.29999",
      "high": "688.50000",
      "low": "687.00000",
      "close": "687.06000",
      "volume": "228404"
    },
    {
      "datetime": "2021-07-30 11:15:00",
      "open": "688.04999",
      "high": "689.00751",
      "low": "686.43500",
      "close": "687.28003",
      "volume": "354039"
    },
    {
      "datetime": "2021-07-30 11:10:00",
      "open": "691.46997",
      "high": "692.87988",
      "low": "687.37012",
      "close": "687.90698",
      "volume": "593119"
    },
    {
      "datetime": "2021-07-30 11:05:00",
      "open": "692.47998",
      "high": "692.50500",
      "low": "690.27008",
      "close": "691.53003",
      "volume": "379980"
    },
    {
      "datetime": "2021-07-30 11:00:00",
      "open": "690.08002",
      "high": "692.65997",
      "low": "689.08002",
      "close": "692.50000",
      "volume": "475911"
    },
    {
      "datetime": "2021-07-30 10:55:00",
      "open": "688.77002",
      "high": "692.21991",
      "low": "688.75000",
      "close": "690.08002",
      "volume": "402795"
    },
    {
      "datetime": "2021-07-30 10:50:00",
      "open": "688.85999",
      "high": "691.35791",
      "low": "688.77002",
      "close": "688.77002",
      "volume": "417117"
    },
    {
      "datetime": "2021-07-30 10:45:00",
      "open": "691.21997",
      "high": "692.20990",
      "low": "688.55011",
      "close": "688.65997",
      "volume": "625933"
    },
    {
      "datetime": "2021-07-30 10:40:00",
      "open": "684.97009",
      "high": "691.15002",
      "low": "684.97009",
      "close": "691.14001",
      "volume": "686502"
    },
    {
      "datetime": "2021-07-30 10:35:00",
      "open": "684.60999",
      "high": "686.00000",
      "low": "684.48999",
      "close": "685.28998",
      "volume": "289456"
    },
    {
      "datetime": "2021-07-30 10:30:00",
      "open": "685.90002",
      "high": "686.11499",
      "low": "683.42999",
      "close": "684.59399",
      "volume": "348236"
    },
    {
      "datetime": "2021-07-30 10:25:00",
      "open": "683.53003",
      "high": "686.35999",
      "low": "683.05011",
      "close": "685.90002",
      "volume": "443042"
    },
    {
      "datetime": "2021-07-30 10:20:00",
      "open": "682.29999",
      "high": "684.94000",
      "low": "682.24500",
      "close": "683.50000",
      "volume": "490198"
    },
    {
      "datetime": "2021-07-30 10:15:00",
      "open": "686.83002",
      "high": "686.84998",
      "low": "681.67932",
      "close": "682.17877",
      "volume": "718068"
    },
    {
      "datetime": "2021-07-30 10:10:00",
      "open": "687.44000",
      "high": "688.96997",
      "low": "685.72009",
      "close": "686.81000",
      "volume": "503979"
    },
    {
      "datetime": "2021-07-30 10:05:00",
      "open": "689.50000",
      "high": "689.89001",
      "low": "686.59003",
      "close": "687.48999",
      "volume": "700857"
    },
    {
      "datetime": "2021-07-30 10:00:00",
      "open": "684.57001",
      "high": "689.57001",
      "low": "684.50012",
      "close": "689.51990",
      "volume": "854519"
    },
    {
      "datetime": "2021-07-30 09:55:00",
      "open": "683.58600",
      "high": "686.87000",
      "low": "683.42609",
      "close": "684.28003",
      "volume": "751561"
    },
    {
      "datetime": "2021-07-30 09:50:00",
      "open": "680.09998",
      "high": "684.94000",
      "low": "680.02008",
      "close": "683.47662",
      "volume": "773753"
    },
    {
      "datetime": "2021-07-30 09:45:00",
      "open": "675.77002",
      "high": "681.15479",
      "low": "675.50800",
      "close": "680.22552",
      "volume": "896605"
    },
    {
      "datetime": "2021-07-30 09:40:00",
      "open": "671.84998",
      "high": "673.10999",
      "low": "670.06012",
      "close": "671.16998",
      "volume": "372162"
    },
    {
      "datetime": "2021-07-30 09:35:00",
      "open": "671.44000",
      "high": "674.00000",
      "low": "669.50000",
      "close": "671.75000",
      "volume": "584882"
    },
    {
      "datetime": "2021-07-30 09:30:00",
      "open": "671.75800",
      "high": "678.84998",
      "low": "669.00000",
      "close": "671.91998",
      "volume": "1284695"
    }
  ],
  "status": "ok"
}
