{
  "meta": {
    "symbol": "TSLA",
    "interval": "1day",
    "currency": "USD",
    "exchange_timezone": "America/New_York",
    "exchange": "NASDAQ",
    "type": "Common Stock"
  },
  "values": [
    {
      "datetime": "2021-07-30",
      "open": "671.76001",
      "high": "697.53003",
      "low": "669.00000",
      "close": "687.20001",
      "volume": "29600500"
    },
    {
      "datetime": "2021-07-29",
      "open": "649.78998",
      "high": "683.69000",
      "low": "648.79999",
      "close": "677.34998",
      "volume": "30302100"
    },
    {
      "datetime": "2021-07-28",
      "open": "647.00000",
      "high": "654.96997",
      "low": "639.40002",
      "close": "646.97998",
      "volume": "15970200"
    },
    {
      "datetime": "2021-07-27",
      "open": "663.40002",
      "high": "666.50000",
      "low": "627.23999",
      "close": "644.78003",
      "volume": "32756900"
    },
    {
      "datetime": "2021-07-26",
      "open": "650.96997",
      "high": "668.19989",
      "low": "647.11011",
      "close": "657.62000",
      "volume": "25336556"
    },
    {
      "datetime": "2021-07-23",
      "open": "646.35999",
      "high": "648.79999",
      "low": "637.29999",
      "close": "643.38000",
      "volume": "14581300"
    },
    {
      "datetime": "2021-07-22",
      "open": "656.44000",
      "high": "662.16998",
      "low": "644.59998",
      "close": "649.26001",
      "volume": "15075600"
    },
    {
      "datetime": "2021-07-21",
      "open": "659.60999",
      "high": "664.85992",
      "low": "650.29010",
      "close": "655.28998",
      "volume": "13953338"
    },
    {
      "datetime": "2021-07-20",
      "open": "651.98999",
      "high": "662.39001",
      "low": "640.50000",
      "close": "660.50000",
      "volume": "15442700"
    },
    {
      "datetime": "2021-07-19",
      "open": "629.89001",
      "high": "647.19989",
      "low": "621.28998",
      "close": "646.21997",
      "volume": "21297090"
    },
    {
      "datetime": "2021-07-16",
      "open": "654.67999",
      "high": "656.70001",
      "low": "642.20001",
      "close": "644.21997",
      "volume": "16339800"
    },
    {
      "datetime": "2021-07-15",
      "open": "658.39001",
      "high": "666.14001",
      "low": "637.88000",
      "close": "650.59998",
      "volume": "20178900"
    },
    {
      "datetime": "2021-07-14",
      "open": "670.75000",
      "high": "678.60999",
      "low": "652.84003",
      "close": "653.38000",
      "volume": "21612700"
    },
    {
      "datetime": "2021-07-13",
      "open": "686.32001",
      "high": "693.28003",
      "low": "666.29999",
      "close": "668.53998",
      "volume": "20847500"
    },
    {
      "datetime": "2021-07-12",
      "open": "662.20001",
      "high": "687.23999",
      "low": "662.18011",
      "close": "685.70001",
      "volume": "25927042"
    },
    {
      "datetime": "2021-07-09",
      "open": "653.17999",
      "high": "658.90997",
      "low": "644.69000",
      "close": "656.95001",
      "volume": "18118500"
    },
    {
      "datetime": "2021-07-08",
      "open": "628.37000",
      "high": "654.42999",
      "low": "620.46002",
      "close": "653.31000",
      "volume": "21752451"
    },
    {
      "datetime": "2021-07-07",
      "open": "664.25647",
      "high": "665.70001",
      "low": "638.32001",
      "close": "644.84998",
      "volume": "18242235"
    },
    {
      "datetime": "2021-07-06",
      "open": "683.31293",
      "high": "683.79999",
      "low": "651.40021",
      "close": "659.58002",
      "volume": "21427808"
    },
    {
      "datetime": "2021-07-02",
      "open": "678.97998",
      "high": "700.00000",
      "low": "673.26001",
      "close": "678.90002",
      "volume": "27054500"
    },
    {
      "datetime": "2021-07-01",
      "open": "683.91998",
      "high": "687.98999",
      "low": "672.79999",
      "close": "677.91998",
      "volume": "18603000"
    }
  ],
  "status": "ok"
}
